{
  "content": [
    {"id": 1, "projectName": "案件A", "unitPrice": "70〜80万円", "startPeriod": "即日"},
    {"id": 2, "projectName": "案件B", "unitPrice": "60〜70万円", "startPeriod": "2026年5月〜"}
  ],
  "totalPages": 20,
  "number": 7,
  "size": 10,
  "totalElements": 20
}